{
  "productos": [
    {
      "id": 1,
      "nombre": "Jugo de Zanahoria",
      "precio": "200"
    },
    {
      "nombre": "Jugo de Naranja",
      "precio": "200",
      "id": 3
    },
    {
      "nombre": "Rib Eye 800g",
      "precio": "200",
      "id": 4
    },
    {
      "nombre": "Jugo de Fresa",
      "precio": "200",
      "id": 5
    },
    {
      "nombre": "lechawa",
      "precio": "0.40",
      "id": 6
    }
  ]
}